﻿2006|843574|4061011806|16|1|10|90072|77752109|P||84
2006|840325|2061514878|16|1|10|90073|77752110|P||1991.97
2006|843647|6051550248|16|1|10|90074|77752111|P||84
2006|809891|6051550250|16|1|10|90075|77752112|P||34
2006|696968|7061510535|16|1|10|90076|77752113|P||4.91
2006|338582|7051729281|16|1|10|90077|77752114|P||21.61
2006|755910|7061685823|16|1|10|90078|77752115|P||25.72
2006|843725|6051550303|16|1|10|90079|77752116|P||484
2006|780556|5051656703|16|1|10|90080|77752117|P||84
2006|747428|4061010345|16|1|10|90081|77752118|P||84
2006|179503|6051320643|16|1|10|90082|77752119|P||35.71
2006|642112|6051366192|16|1|10|90083|0|N|32|5.01
2006|843809|2061522356|16|1|10|90084|77752120|P||84
2006|843819|6051550353|16|1|10|90085|77752121|P||184
2006|470926|6051199680|16|1|10|90086|77752122|P||2545.1
2006|601420|7061211177|16|1|10|90087|77752123|P||36.45
2006|843858|2061522514|176|1|10|90088|0|N|32|100
