﻿2007|810282|6051521912|16|1|10|90089|77758271|P||1007.95
2007|843929|4061012953|16|1|10|90090|77758272|P||84
2007|487471|4061012941|16|1|10|90091|77758273|P||84
2007|843954|2061522875|176|1|10|90092|0|N|32|100
2007|581006|6051304259|16|1|10|90093|77758274|P||31.23
2007|666137|7061412276|16|1|10|90094|0|N|32|13.02
2007|843995|6051550585|16|1|10|90095|77758275|P||84
2007|320145|7051480469|16|1|10|90096|77758276|P||32.62
2007|843982|6051550559|16|1|10|90097|77758277|P||1084
2007|543815|6051550626|16|1|10|90098|77758278|P||84
2007|842494|6051550614|16|1|10|90099|77758279|P||104
