2011|844484|5051658438|16|1|10|90119|77791114|P||84
2011|844499|4061014339|16|1|10|90120|77791115|P||3784
2011|844523|4061014341|16|1|10|90121|77791116|P||84
2011|844530|7061947386|16|1|10|90122|77791117|P||84
2011|841794|2061525633|16|1|10|90123|77791118|P||184
2011|590399|6051551486|16|1|10|90124|77791119|P||84
