﻿2025|843543|6051553848|16|1|10|90268|78393909|P||84
2025|843046|2061518135|16|1|10|90269|78393910|P||24.05
2025|787829|2061534672|16|1|10|90270|78393911|P||50084
2025|165919|6051091797|16|1|10|90271|78393912|P||67.48
2025|836673|2061534696|16|1|10|90272|78393913|P||84
2025|846287|6051553953|16|1|10|90273|78393914|P||700
2025|846292|6051553965|16|1|10|90274|78393915|P||4984
2025|183124|6051103289|16|1|10|90275|78393916|P||16.36
2025|844371|6051554000|16|1|10|90276|78393917|P||96
2025|516372|5051283245|16|1|10|90277|78393918|P||263.46
2025|842205|5051662099|16|1|10|90278|78393919|P||84
2025|842861|6051554050|16|1|10|90279|78393920|P||84
2025|843777|2061522227|16|1|10|90280|78393921|P||84.08
2025|675709|6051404255|16|1|10|90281|78393922|P||17.76
2025|842331|8051330496|16|1|10|90282|78393923|P||134
2025|842227|2061530080|16|1|10|90283|78393924|P||3084
2025|797920|2061534995|16|1|10|90284|78393925|P||84
2025|846377|4061019456|16|1|10|90285|78393926|P||2436.43
2025|846375|6051554139|16|1|10|90286|78393927|P||84
