﻿2028|533639|7061004653|176|1|10|90325|78422772|P||883.82
2028|831615|6051541273|16|1|10|90326|78422752|P||58.89
2028|846842|6051554816|16|1|10|90327|78422753|P||84
2028|846844|5051662908|16|1|10|90328|78422754|P||84
2028|846860|2061536589|16|1|10|90329|78422755|P||84
2028|846861|6051554842|16|1|10|90330|78422756|P||84
2028|610943|1151544901|16|1|10|90331|78422757|P||6624
2028|846905|6051554892|16|1|10|90332|78422758|P||1344
2028|846911|2061536682|16|1|10|90333|78422759|P||84
2028|846812|2061536723|16|1|10|90334|78422760|P||84
2028|703897|6052554954|16|1|10|90335|0|N|32|15.06
2028|696897|2061536747|16|1|10|90336|78422761|P||184
2028|846933|1151545498|16|1|10|90337|78422762|P||984
2028|715592|2061536773|16|1|10|90338|78422763|P||20834
2028|83738|7061967128|16|1|10|90339|78422764|P||84
2028|845028|6051552105|16|1|10|90295|78422765|P||34.02
2028|843354|6051554488|176|1|10|90296|78422773|P||26264
2028|316198|7061623849|16|1|10|90297|0|N|32|13.47
2028|565584|2051875559|16|1|10|90298|78422766|P||2585.24
2028|846569|5051662465|16|1|10|90299|78422767|P||65084
2028|618974|4061016595|16|1|10|90192|78422768|P||84
2028|695969|6051418189|16|1|10|90193|78422769|P||108.76
2028|845396|6051552404|16|1|10|90194|78422770|P||84
2028|845409|6051552430|16|1|10|90195|78422771|P||6734
