﻿2039|848853|6051557739|176|1|10|90426|79025882|P||24
2039|848866|2061543752|16|1|10|90427|79025878|P||84
2039|695418|6051557791|16|1|10|90428|79025879|P||84
2039|845986|6051553472|16|1|10|90429|79025880|P||1560.29
2039|613442|2061544134|176|1|10|90430|0|N|32|100
2039|301857|7061975096|16|1|10|90432|79025881|P||104
