﻿2009|844136|7061942465|16|1|10|90104|1|1|20201218
2009|844152|7061942594|16|1|10|90105|2|1|20201218
2009|844164|7061942790|16|1|10|90106|3|1|20201218
2009|305354|7051618353|16|1|10|90107|4|1|20201218
2009|844180|6051550860|16|1|10|90108|5|1|20201218
2009|844115|6051550743|16|1|10|90109|6|1|20201218
2009|844107|6051550729|16|1|10|90110|7|1|20201218
2009|844183|7061943160|16|1|10|90111|8|1|20201218
2009|320362|7051523572|16|1|10|90112|9|1|20201218
2009|537493|6051262061|16|1|10|90113|10|1|20201218