﻿2017|845344|2061529598|16|1|10|90196|1|1|20210104
2017|845425|4061016844|16|1|10|90197|2|1|20210104
2017|845437|4061016923|16|1|10|90198|3|1|20210104
2017|845439|6051552521|16|1|10|90199|4|1|20210104
2017|842329|6051552507|16|1|10|90200|5|1|20210104
2017|620199|7061262061|16|1|10|90201|6|1|20210104
2017|845483|6051552583|16|1|10|90202|7|1|20210104
2017|845498|4061017094|16|1|10|90203|8|1|20210104
2017|845506|4061017109|16|1|10|90204|9|1|20210104