﻿2026|846409|6051554165|16|1|10|90287|1|1|20210115
2026|844562|6051554244|176|1|10|90288|2|1|20210115
2026|846432|6051554268|16|1|10|90289|3|1|20210115
2026|845373|6051554270|16|1|10|90290|4|1|20210115
2026|846442|4061019573|16|1|10|90291|5|1|20210115
2026|846484|2061535274|16|1|10|90292|6|1|20210115
2026|456071|6051554402|176|1|10|90293|7|1|20210115
2026|846524|2061535377|16|1|10|90294|8|1|20210115