﻿2032|720842|2061272121|176|1|10|49275|1|1|20210128
2032|566413|7061727437|176|1|10|49458|2|1|20210128
2032|832309|2061500190|16|1|10|90369|3|1|20210128
2032|845677|6051556022|16|1|10|90370|4|1|20210128
2032|847615|6051556149|16|1|10|90371|5|1|20210128
2032|839998|6051548362|16|1|10|90372|6|1|20210128
2032|840969|2261194717|16|1|10|90373|7|1|20210128
2032|838802|2061516785|16|1|10|90000|8|1|20210128
2032|842692|2061516826|16|1|10|90001|9|1|20210128
2032|736289|1151542020|16|1|10|90002|10|1|20210128
2032|200270|5051654406|16|1|10|90003|11|1|20210128
2032|842707|4061008380|16|1|10|90004|12|1|20210128
2032|842221|6051549134|16|1|10|90005|13|1|20210128
2032|842286|2061516955|16|1|10|90006|14|1|20210128
2032|842700|6051549251|16|1|10|90009|15|1|20210128
2032|842696|6051549263|16|1|10|90010|16|1|20210128
2032|842645|6051549225|16|1|10|90011|17|1|20210128
2032|565221|7061092753|16|1|10|90014|18|1|20210128
2032|837789|8051328675|16|1|10|90016|19|1|20210128
2032|842800|6051549299|16|1|10|90017|20|1|20210128
2032|674819|7061442415|16|1|10|90018|21|1|20210128
2032|738557|2061517272|16|1|10|90019|22|1|20210128
2032|842892|7061932501|16|1|10|90020|23|1|20210128
2032|842900|2061517442|16|1|10|90021|24|1|20210128
2032|842954|7061932678|16|1|10|90023|25|1|20210128
2032|842993|2061517765|16|1|10|90024|26|1|20210128
2032|187427|6051140081|16|1|10|90025|27|1|20210128
2032|537880|6051549457|16|1|10|90026|28|1|20210128
2032|842058|8051328754|16|1|10|90028|29|1|20210128
2032|843123|6051549536|16|1|10|90029|30|1|20210128
2032|843147|5051655034|16|1|10|90030|31|1|20210128
2032|777311|6051549615|16|1|10|90031|32|1|20210128
2032|639196|2061518800|16|1|10|90032|33|1|20210128
2032|162938|6051482855|16|1|10|90033|34|1|20210128
2032|843188|2061519103|16|1|10|90034|35|1|20210128
2032|455302|7051779200|16|1|10|90036|36|1|20210128
2032|836171|6051545140|16|1|10|90037|37|1|20210128
2032|843214|8051328895|16|1|10|90038|38|1|20210128
2032|843217|6051549732|16|1|10|90039|39|1|20210128
2032|841750|5051655395|16|1|10|90041|40|1|20210128
2032|841912|2061519531|16|1|10|90042|41|1|20210128
2032|732821|7061632278|16|1|10|90043|42|1|20210128
2032|610452|6051549835|16|1|10|90045|43|1|20210128
2032|639313|6051364742|16|1|10|90046|44|1|20210128
2032|841969|6051549823|16|1|10|90047|45|1|20210128
2032|839275|5051653244|16|1|10|90048|46|1|20210128
2032|842139|6051549861|16|1|10|90049|47|1|20210128
2032|209951|5051654664|16|1|10|90050|48|1|20210128
2032|791975|7061934755|16|1|10|90051|49|1|20210128
2032|179504|6051549847|16|1|10|90052|50|1|20210128
2032|722799|7061935175|16|1|10|90053|51|1|20210128
2032|840748|6051549043|16|1|10|90055|52|1|20210128
2032|335981|7061663629|16|1|10|90056|53|1|20210128
2032|470760|7051840255|16|1|10|90057|54|1|20210128
2032|477015|2061519763|16|1|10|90059|55|1|20210128
2032|840993|2061520633|16|1|10|90060|56|1|20210128
2032|842109|2061520695|16|1|10|90062|57|1|20210128
2032|300797|7052271877|16|1|10|90063|58|1|20210128
2032|843474|6051550121|16|1|10|90064|59|1|20210128
2032|843491|6051550157|16|1|10|90066|60|1|20210128
2032|841942|6051548740|16|1|10|90068|61|1|20210128
2032|718974|6051478971|16|1|10|90069|62|1|20210128
2032|843515|6051550183|16|1|10|90070|63|1|20210128
2032|843562|8051329112|16|1|10|90071|64|1|20210128
2032|843574|4061011806|16|1|10|90072|65|1|20210128
2032|840325|2061514878|16|1|10|90073|66|1|20210128
2032|843647|6051550248|16|1|10|90074|67|1|20210128
2032|809891|6051550250|16|1|10|90075|68|1|20210128
2032|696968|7061510535|16|1|10|90076|69|1|20210128
2032|338582|7051729281|16|1|10|90077|70|1|20210128
2032|755910|7061685823|16|1|10|90078|71|1|20210128
2032|843725|6051550303|16|1|10|90079|72|1|20210128
2032|780556|5051656703|16|1|10|90080|73|1|20210128
2032|747428|4061010345|16|1|10|90081|74|1|20210128
2032|179503|6051320643|16|1|10|90082|75|1|20210128
2032|642112|6051366192|16|1|10|90083|76|1|20210128
2032|843809|2061522356|16|1|10|90084|77|1|20210128
2032|843819|6051550353|16|1|10|90085|78|1|20210128
2032|470926|6051199680|16|1|10|90086|79|1|20210128
2032|601420|7061211177|16|1|10|90087|80|1|20210128
2032|810282|6051521912|16|1|10|90089|81|1|20210128
2032|843929|4061012953|16|1|10|90090|82|1|20210128
2032|487471|4061012941|16|1|10|90091|83|1|20210128
2032|581006|6051304259|16|1|10|90093|84|1|20210128
2032|666137|7061412276|16|1|10|90094|85|1|20210128
2032|843995|6051550585|16|1|10|90095|86|1|20210128
2032|320145|7051480469|16|1|10|90096|87|1|20210128
2032|843982|6051550559|16|1|10|90097|88|1|20210128
2032|543815|6051550626|16|1|10|90098|89|1|20210128
2032|842494|6051550614|16|1|10|90099|90|1|20210128
2032|840550|5051657599|16|1|10|90100|91|1|20210128
2032|712100|6051550652|16|1|10|90101|92|1|20210128
2032|844085|2061523532|16|1|10|90102|93|1|20210128
2032|679625|6051403964|16|1|10|90103|94|1|20210128
2032|844136|7061942465|16|1|10|90104|95|1|20210128
2032|844152|7061942594|16|1|10|90105|96|1|20210128
2032|844164|7061942790|16|1|10|90106|97|1|20210128
2032|305354|7051618353|16|1|10|90107|98|1|20210128
2032|844180|6051550860|16|1|10|90108|99|1|20210128
2032|844115|6051550743|16|1|10|90109|100|1|20210128
2032|844107|6051550729|16|1|10|90110|101|1|20210128
2032|844183|7061943160|16|1|10|90111|102|1|20210128
2032|320362|7051523572|16|1|10|90112|103|1|20210128
2032|537493|6051262061|16|1|10|90113|104|1|20210128
2032|844300|2061524421|16|1|10|90114|105|1|20210128
2032|675098|6051402180|16|1|10|90115|106|1|20210128
2032|844363|8051329459|16|1|10|90117|107|1|20210128
2032|844403|4061014030|16|1|10|90118|108|1|20210128
2032|844484|5051658438|16|1|10|90119|109|1|20210128
2032|844499|4061014339|16|1|10|90120|110|1|20210128
2032|844523|4061014341|16|1|10|90121|111|1|20210128
2032|844530|7061947386|16|1|10|90122|112|1|20210128
2032|841794|2061525633|16|1|10|90123|113|1|20210128
2032|590399|6051551486|16|1|10|90124|114|1|20210128
2032|844606|4061014509|16|1|10|90125|115|1|20210128
2032|844610|8051329588|16|1|10|90126|116|1|20210128
2032|640109|7061339498|16|1|10|90127|117|1|20210128
2032|844617|6051551565|16|1|10|90128|118|1|20210128
2032|844628|8051329605|16|1|10|90129|119|1|20210128
2032|333512|7051657725|16|1|10|90130|120|1|20210128
2032|844645|4061014602|16|1|10|90131|121|1|20210128
2032|844668|8051329655|16|1|10|90132|122|1|20210128
2032|844685|7061949530|16|1|10|90133|123|1|20210128
2032|844692|8051329693|16|1|10|90134|124|1|20210128
2032|45543|2251474717|16|1|10|90135|125|1|20210128
2032|844707|5051658995|16|1|10|90136|126|1|20210128
2032|844581|8051329564|16|1|10|90137|127|1|20210128
2032|115519|1151423793|16|1|10|90139|128|1|20210128
2032|844775|8051329758|16|1|10|90140|129|1|20210128
2032|834880|8051327190|16|1|10|90141|130|1|20210128
2032|782839|7061788924|16|1|10|90142|131|1|20210128
2032|91824|4061014896|16|1|10|90143|132|1|20210128
2032|844791|6051551840|16|1|10|90144|133|1|20210128
2032|844795|5051659298|16|1|10|90145|134|1|20210128
2032|844801|8051329784|16|1|10|90146|135|1|20210128
2032|844802|8051329796|16|1|10|90147|136|1|20210128
2032|182459|6051414690|16|1|10|90148|137|1|20210128
2032|172301|6051455723|16|1|10|90149|138|1|20210128
2032|711723|7061558513|16|1|10|90151|139|1|20210128
2032|772581|6051551967|16|1|10|90152|140|1|20210128
2032|844924|5051659731|16|1|10|90153|141|1|20210128
2032|735849|7061644922|16|1|10|90154|142|1|20210128
2032|174855|6051551993|16|1|10|90155|143|1|20210128
2032|844952|4061015682|16|1|10|90156|144|1|20210128
2032|844955|8051329875|16|1|10|90158|145|1|20210128
2032|844962|2061527837|16|1|10|90159|146|1|20210128
2032|844970|4061015709|16|1|10|90160|147|1|20210128
2032|844978|2061527899|16|1|10|90161|148|1|20210128
2032|616233|5051392307|16|1|10|90162|149|1|20210128
2032|482254|4061015826|16|1|10|90163|150|1|20210128
2032|845003|6051552088|16|1|10|90164|151|1|20210128
2032|721670|4051826617|16|1|10|90165|152|1|20210128
2032|746863|6051466681|16|1|10|90167|153|1|20210128
2032|845024|8051329928|16|1|10|90168|154|1|20210128
2032|845086|8051329942|16|1|10|90169|155|1|20210128
2032|787925|6051532882|16|1|10|90170|156|1|20210128
2032|845102|5051659963|16|1|10|90171|157|1|20210128
2032|179161|6051300849|16|1|10|90172|158|1|20210128
2032|186235|6051451349|16|1|10|90173|159|1|20210128
2032|678773|6051475498|16|1|10|90174|160|1|20210128
2032|845147|7061954365|16|1|10|90175|161|1|20210128
2032|845153|8051329980|16|1|10|90176|162|1|20210128
2032|772007|6051489982|16|1|10|90177|163|1|20210128
2032|165471|6051272327|16|1|10|90178|164|1|20210128
2032|600248|6051322469|16|1|10|90180|165|1|20210128
2032|845203|6051552222|16|1|10|90181|166|1|20210128
2032|584419|6051492915|16|1|10|90182|167|1|20210128
2032|845224|8051330020|16|1|10|90183|168|1|20210128
2032|845234|7061955620|16|1|10|90184|169|1|20210128
2032|685907|6051408677|16|1|10|90185|170|1|20210128
2032|490645|6051322615|16|1|10|90186|171|1|20210128
2032|627777|6051352347|16|1|10|90187|172|1|20210128
2032|845280|8051330068|16|1|10|90188|173|1|20210128
2032|536937|4051517462|16|1|10|90189|174|1|20210128
2032|845332|7061956650|16|1|10|90190|175|1|20210128
2032|845357|6051552363|16|1|10|90191|176|1|20210128
2032|841579|5051654432|176|1|10|90007|177|1|20210128
2032|837336|5051654511|176|1|10|90012|178|1|20210128
2032|736345|5051654561|176|1|10|90013|179|1|20210128
2032|843216|6051549720|176|1|10|90040|180|1|20210128
2032|842049|5051655979|176|1|10|90065|181|1|20210128
2032|843858|2061522514|176|1|10|90088|182|1|20210128
2032|843954|2061522875|176|1|10|90092|183|1|20210128
2032|844726|5051659054|176|1|10|90138|184|1|20210128