﻿2041|732112|6051558032|16|1|10|90441|1|1|20210212
2041|186847|6051558044|16|1|10|90442|2|1|20210212
2041|574275|6051494377|16|1|10|90443|3|1|20210212
2041|848893|6051558056|16|1|10|90444|4|1|20210212
2041|326355|7061409308|16|1|10|90445|5|1|20210212
2041|664149|2061545633|16|1|10|90446|6|1|20210212